{
    "name": "Ataraxia-Mod",
    "description": "A state of serene calmness",
    "authors": [

        {
            "name": "Danaos",
            "id": "334406149870845953"
          
        }
    ],
    "spec": 2,
    "semanticColors": {
        "BACKGROUND_MODIFIER_SELECTED": [
            "#361212"
        ],
        "BACKGROUND_ACCENT": [
            "#5B3535"
        ]

    },
    "rawColors": {
        "PRIMARY_500": "#4e5058",
        "PRIMARY_100": "#f9f9f9",
        "PRIMARY_200": "#F4EAE5",
        "PRIMARY_230": "#dbdee1",
        "PRIMARY_300": "#c4c9ce",
        "PRIMARY_360": "#949ba4",
        "PRIMARY_400": "#80848e",
        "PRIMARY_600": "#140000",
        "PRIMARY_630": "#180000",
        "PRIMARY_645": "#008080",   
        "PRIMARY_660": "#000000",
        "PRIMARY_700": "#000000",
        "PRIMARY_800": "#111214",
        "BRAND_260": "#FF9A9A",
        "BRAND_360": "#949cf7",
        "BRAND_500": "#350000",
        "BRAND_560": "#40E0D0",
        "YELLOW_300": "#f0b232",
        "GREEN_600": "#FF6F61",
        "RED_400": "#F35659",
        "WHITE_500": "#ffffff",
        "GREEN_360": "#23a55a"
    },
    "plus":{
       "version":"0",
       "iconpack":"md3"
    },
    
    "background": {
        "blur": 0,
        "url": "https://cdn.discordapp.com/attachments/776438019800563712/1165680086536704000/Mobile_Background_Img_Edit3.jpg?ex=6547bb2d&is=6535462d&hm=2225c7c0db4f02e22f100769eff0d4ffb23efe6c998172031410e679a356a5ca&",
        "alpha": 0.7
        },
        "customOverlays": true,
        "color": "#6b8e4e"
}